{
  "type": "object",
  
  "options": {
    "disable_properties": false
  },
  "required": [
    "name",
    "type",
    "id"
  ],
  "defaultProperties": [],
  "properties":{
    "type": {
      "type": "string"
    },
    "name": {
      "title": "Name",
      "type": "string"
    },
    "id": {
      "$ref":"id.json"
    },
    
    "description": {
      "$ref":"description.json"
    },

    "info": {
      "type": "array",
      "description": "The array of section titles and contents for display in the layer info panel.\nIn future this may replace 'description' above - this list should not contain\nsections named 'description' or 'Description' if the 'description' property\nis also set as both will be displayed.\nThe object is of the form {name:string, content:string}.\nContent will be rendered as Markdown with HTML.",
      "format": "tabs",
      "items": {
        "type": "object",
        "title": "Info",
        "headerTemplate": "{{ self.name }}",
        "defaultProperties": [
          "name",
          "content"
        ],
        "required": [
          "name",
          "content"
        ],
        "additionalProperties": false,
        "properties": {
          "name": {
            "title": "Section name",
            "type": "string"
          },
          "content": {
            "title": "Content",
            "type": "string",
            "options": {
              "expand_height": true
            }
          }
        }
      }
    },
    "infoSectionOrder": {
      "type": "array",
      "description": "The array of section titles definining the display order of info sections.  If this property\nis not defined, {@link CatalogItemInfoViewModel.infoSectionOrder} is used.",
      "format": "tabs",
      "items": {
        "type": "string"
      }
    },
    "isUserSupplied": {
      "type": "boolean",
      "description": "A value indicating whether this member was supplied by the user rather than loaded from one of the\n{@link Terria#initSources}.  User-supplied members must be serialized completely when, for example,\nserializing enabled members for sharing.",
      "format": "checkbox"
    },
    "isPromoted": {
      "type": "boolean",
      "description": "A value indicating whether this item is kept above other non-promoted items.",
      "format": "checkbox"
    },
    "isHidden": {
      "type": "boolean",
      "description": "A value indicating whether this item is hidden from the catalog.  This\nproperty is observable.",
      "format": "checkbox"
    },
    "initialMessage": {
      "type": "object",
      "description": "A message object that is presented to the user when an item or group is initially clicked\nThe object is of the form {title:string, content:string, key: string}."
    },
    "cacheDuration": {
      "type": "string",
      "description": "The cache duration to use for proxied URLs for this catalog member.  If undefined, proxied URLs are effectively cachable\nforever.  The duration is expressed as a Varnish-like duration string, such as '1d' (one day) or '10000s' (ten thousand seconds)."
    },
    "forceProxy": {
      "type": "boolean",
      "description": "Gets or sets whether or not this member should be forced to use a proxy.\nThis property is not observable.",
      "format": "checkbox"
    },
    "shareKeys": {
      "type": "array",
      "title": "Share keys",
      "description": "An array of all possible keys that can be used to match to this catalog member when specified in a share link -\nused for maintaining backwards compatibility when adding or changing CatalogMember's id.",
      "items": {
        "type": "string"
      }
    }
  }
}