{
  "type":"object",
  "format":"grid-strict",
  "required":[
      "type",
      "url",
      "name"
  ],
  "options":{
      "disable_collapse":true,
      "disable_edit_json":true,
      "disable_properties":true
  },
  "properties":{
      "type":{
          "type":"string",
          "enum":[
              "remote-config-group"
          ],
          "options":{
              "hidden":true,
              "grid_columns":0
          }
      },
      "name":{
          "type":"string",
          "description":"Auto generated descriptive name",
          "minLength": 1,
          "options":{
              "grid_columns":4
          }
      },
      "url":{
          "type":"string",
          "description":"The URL from where the system fetches the configuration from. The url should return a valid terriajs configuration that contains either items or catalog in the JSON structure returned at the top level. Camera definition is not required (and has no effect) by this implementation.",
          "format":"autocomplete",
          "options":{
              "autocomplete":{
                  "search":"view_remoteGroup_search",
                  "getResultValue":"view_remote_getValue",
                  "renderResult":"view_renderer",
                  "autoSelect":true,
                  "debounceTime":500
              },
              "grid_columns":8
          }
      },
     "isOpen": {
        "type": "boolean",
        "format": "checkbox",
        "default": false,
        "options":{
          "grid_columns":10
          }
    }
  }
}