{
    "type": "object",
    "format": "grid-strict",
    "options": {
        "disable_collapse": true,
        "disable_edit_json": true,
        "disable_properties": true
    },
    "properties": {
        "type": {
            "type": "string",
            "enum": [
                "terriajs-view"
            ],
            "options": {
                "hidden": true,
                "grid_columns": 0
            }
        },
        "id": {
            "type": "string",
            "readonly": true,
            "description": "Target Ckan terriajs view ID (autocomplete)",
            "minLength": 36,
            "options": {
                "grid_columns": 6
            }
        },
        "name": {
            "type": "string",
            "format": "string",
            "description": "Auto generated descriptive name",
            "options": {
                "grid_columns": 6
            }
        }
    }
}