{
    "name": "{{package.title or package.name}}",
    "url": "{{resource.url}}",
    "description": "\n{{package.notes}}\n{% if organization.image_display_url %}**Organization**: [{{organization.title}}]({{ckan.base_url}}organization\/{{organization.name}}) \n\n[![]({{organization.image_display_url}})]({{ckan.base_url}}organization\/{{organization.name}}){% else %}**Organization**:  [{{organization.title}}]({{ckan.base_url}}organization\/{{organization.name}}){% endif %}\n\n{% if package.provenance %}**Provenance**: {{package.provenance}}{% endif %} \n{% if package.maintainer and package.maintainer_email%}**Maintainer**: [{{package.maintainer}}](mailto:{{package.maintainer_email}}) {% elif package.maintainer_email %}**Maintainer**: [{{package.maintainer_email}}](mailto:{{package.maintainer_email}}) {% elif package.maintainer %}**Maintainer**:  {{package.maintainer}} {% else %} {% endif %} \n{% if package.author and package.author_email%}**Author**: [{{package.author}}](mailto:{{package.author_email}}) {% elif package.author_email %}**Author**: [{{package.author_email}}](mailto:{{package.author_email}}) {% elif package.author %}**Author**:  {{package.author}} {% else %} {% endif %} \n{% if package.contact_name %}**Contact**: {{package.contact_name}}{% endif %}\n{% if package.publisher_name and package.publisher_url%}**Publisher**: [{{package.publisher_name}}]({{package.publisher_url}}) {% elif package.publisher_url %}**Publisher**: [{{package.publisher_url}}]({{package.publisher_url}}) {% elif package.publisher_name %}**Publisher**:  {{package.publisher_name}} {% else %} {% endif %} \n\n\n{% if package.frequency %}**Frequency**: {{package.frequency}}{% endif %}\n{% if package.spatial_text %} **Spatial**: {{package.spatial_text}}{% endif %}\n\n{% if package.theme %}**Theme**: {{package.theme}}{% endif %}\n{% if package.type == \"dataset\" and package.extras %}**Extras**: {% for e in package.extras %}\n- **{{e.key}}**: _{{e.value}}_ {% endfor %}{% endif %} \n\n[\/\/]: # (Comment)\n\n{% if resource.license %}**License**: {{resource.license}}{% else %}{% if package.license_title and package.license_url %}**License**: [{{package.license_title}}]({{package.license_url}}){% elif package.license_title %}**License**: {{package.license_title}}{% elif package.license_url %}**License**: [{{package.license_url}}]({{package.license_url}}){% endif %}{% endif %}\n\n{% if resource.format|lower!='group' and resource.format|lower!='terriajs-group' %}\n{% if resource.url %}**Resource**: [{{resource.name}}]({{resource.url}}){% else %}{{resource.name}}{% endif %} {% if resource.last_modified %}*(Last updated: {{resource.last_modified}})*  {% endif %} \n\n{% if resource.description %}{{resource.description}}\n\n{% endif %}\n{% if resource.format|lower %} **Format**: {{resource.format}}{% endif %} \n{% if resource.mimetype %} **Mimetype**: {{resource.mimetype}}{% endif %} \n{% if resource.size %} **Size**: {{resource.size}}{% endif %} \n{% endif %}\n\n**Metadata Link**: [{{ckan.base_url}}{{package.type}}\/{{package.name}}]({{ckan.base_url}}\/{{package.type}}\/{{package.name}}) \n\n{% if package.metadata_modified %}\n{% if package.version %}**version**: {{package.version}}{% endif %} revised: {{package.metadata_modified}}{% endif %}\n",
    "id": "",
    "type": "wmts",
    "layer": "{{resource.name}}",
    "tileMatrixSetID": "EPSG:900913",
    "tags": "{% for tag in package.tags%}{{tag.name}} {% endfor %}"
}